\relax 
\providecommand\hyper@newdestlabel[2]{}
\providecommand\HyperFirstAtBeginDocument{\AtBeginDocument}
\HyperFirstAtBeginDocument{\ifx\hyper@anchor\@undefined
\global\let\oldcontentsline\contentsline
\gdef\contentsline#1#2#3#4{\oldcontentsline{#1}{#2}{#3}}
\global\let\oldnewlabel\newlabel
\gdef\newlabel#1#2{\newlabelxx{#1}#2}
\gdef\newlabelxx#1#2#3#4#5#6{\oldnewlabel{#1}{{#2}{#3}}}
\AtEndDocument{\ifx\hyper@anchor\@undefined
\let\contentsline\oldcontentsline
\let\newlabel\oldnewlabel
\fi}
\fi}
\global\let\hyper@last\relax 
\gdef\HyperFirstAtBeginDocument#1{#1}
\providecommand\HyField@AuxAddToFields[1]{}
\providecommand\HyField@AuxAddToCoFields[2]{}
\providecommand \oddpage@label [2]{}
\@writefile{toc}{\contentsline {chapter}{\numberline {1}Content}{1}{chapter.1}}
\@writefile{lof}{\addvspace {10\p@ }}
\@writefile{lot}{\addvspace {10\p@ }}
\newlabel{index}{{1}{1}{Content}{chapter.1}{}}
\@writefile{toc}{\contentsline {section}{\numberline {1.1}atom}{1}{section.1.1}}
\newlabel{index_atom}{{1.1}{1}{atom}{section.1.1}{}}
\@writefile{toc}{\contentsline {section}{\numberline {1.2}doxygen}{1}{section.1.2}}
\newlabel{index_doxygen}{{1.2}{1}{doxygen}{section.1.2}{}}
\@writefile{toc}{\contentsline {section}{\numberline {1.3}gitlab}{1}{section.1.3}}
\newlabel{index_gitlab}{{1.3}{1}{gitlab}{section.1.3}{}}
\@writefile{toc}{\contentsline {subsection}{\numberline {1.3.1}Create a new website}{1}{subsection.1.3.1}}
\newlabel{index_website}{{1.3.1}{1}{Create a new website}{subsection.1.3.1}{}}
\@writefile{toc}{\contentsline {chapter}{\numberline {2}snippets}{3}{chapter.2}}
\@writefile{lof}{\addvspace {10\p@ }}
\@writefile{lot}{\addvspace {10\p@ }}
\newlabel{md_README}{{2}{3}{snippets}{chapter.2}{}}
\@writefile{toc}{\contentsline {chapter}{\numberline {3}File Index}{5}{chapter.3}}
\@writefile{lof}{\addvspace {10\p@ }}
\@writefile{lot}{\addvspace {10\p@ }}
\@writefile{toc}{\contentsline {section}{\numberline {3.1}File List}{5}{section.3.1}}
\citation{Arora2011-79f}
\@writefile{toc}{\contentsline {chapter}{\numberline {4}File Documentation}{7}{chapter.4}}
\@writefile{lof}{\addvspace {10\p@ }}
\@writefile{lot}{\addvspace {10\p@ }}
\@writefile{toc}{\contentsline {section}{\numberline {4.1}doxygen\discretionary {\unhbox \voidb@x \hbox {\relax \fontsize  {7}{8}\selectfont  $\leftarrow \joinrel  \rhook $}}{}{}\_\discretionary {\unhbox \voidb@x \hbox {\relax \fontsize  {7}{8}\selectfont  $\leftarrow \joinrel  \rhook $}}{}{}basics.\discretionary {\unhbox \voidb@x \hbox {\relax \fontsize  {7}{8}\selectfont  $\leftarrow \joinrel  \rhook $}}{}{}F90 File Reference}{7}{section.4.1}}
\newlabel{doxygen__basics_8F90}{{4.1}{7}{doxygen\+\_\+basics.\+F90 File Reference}{section.4.1}{}}
\newlabel{doxygen__basics_8F90_a3bc9bcabdae99a48dc734ef3e45c869c}{{4.1}{7}{Functions/\+Subroutines}{section*.2}{}}
\@writefile{toc}{\contentsline {subsection}{\numberline {4.1.1}Detailed Description}{7}{subsection.4.1.1}}
\@writefile{toc}{\contentsline {subsection}{\numberline {4.1.2}Sections}{7}{subsection.4.1.2}}
\newlabel{doxygen__basics_8F90_my-section-name}{{4.1.2}{7}{Sections}{subsection.4.1.2}{}}
\@writefile{toc}{\contentsline {subsubsection}{\numberline {4.1.2.1}This is a subsection}{7}{subsubsection.4.1.2.1}}
\newlabel{doxygen__basics_8F90_my-subsection-name}{{4.1.2.1}{7}{This is a subsection}{subsubsection.4.1.2.1}{}}
\@writefile{toc}{\contentsline {paragraph}{\numberline {4.1.2.1.1}This is a subsubsection}{7}{paragraph.4.1.2.1.1}}
\newlabel{doxygen__basics_8F90_my-subsubsection-name}{{4.1.2.1.1}{7}{This is a subsubsection}{paragraph.4.1.2.1.1}{}}
\@writefile{toc}{\contentsline {subsection}{\numberline {4.1.3}Equations}{7}{subsection.4.1.3}}
\newlabel{doxygen__basics_8F90_LaTex}{{4.1.3}{7}{Equations}{subsection.4.1.3}{}}
\@writefile{toc}{\contentsline {subsection}{\numberline {4.1.4}Citations}{7}{subsection.4.1.4}}
\newlabel{doxygen__basics_8F90_Citations}{{4.1.4}{7}{Citations}{subsection.4.1.4}{}}
\@writefile{toc}{\contentsline {subsection}{\numberline {4.1.5}Links}{7}{subsection.4.1.5}}
\newlabel{doxygen__basics_8F90_Links}{{4.1.5}{7}{Links}{subsection.4.1.5}{}}
\@writefile{toc}{\contentsline {subsection}{\numberline {4.1.6}Code}{8}{subsection.4.1.6}}
\newlabel{doxygen__basics_8F90_Code}{{4.1.6}{8}{Code}{subsection.4.1.6}{}}
\@writefile{toc}{\contentsline {section}{\numberline {4.2}snippets\discretionary {\unhbox \voidb@x \hbox {\relax \fontsize  {7}{8}\selectfont  $\leftarrow \joinrel  \rhook $}}{}{}\_\discretionary {\unhbox \voidb@x \hbox {\relax \fontsize  {7}{8}\selectfont  $\leftarrow \joinrel  \rhook $}}{}{}\discretionary {\unhbox \voidb@x \hbox {\relax \fontsize  {7}{8}\selectfont  $\leftarrow \joinrel  \rhook $}}{}{}Fortran.\discretionary {\unhbox \voidb@x \hbox {\relax \fontsize  {7}{8}\selectfont  $\leftarrow \joinrel  \rhook $}}{}{}F90 File Reference}{8}{section.4.2}}
\newlabel{snippets__Fortran_8F90}{{4.2}{8}{snippets\+\_\+\+Fortran.\+F90 File Reference}{section.4.2}{}}
\@writefile{toc}{\contentsline {subsection}{\numberline {4.2.1}Detailed Description}{8}{subsection.4.2.1}}
\@writefile{toc}{\contentsline {subsection}{\numberline {4.2.2}Constants}{8}{subsection.4.2.2}}
\newlabel{snippets__Fortran_8F90_Constants}{{4.2.2}{8}{Constants}{subsection.4.2.2}{}}
\@writefile{toc}{\contentsline {subsection}{\numberline {4.2.3}Data types}{8}{subsection.4.2.3}}
\newlabel{snippets__Fortran_8F90_types}{{4.2.3}{8}{Data types}{subsection.4.2.3}{}}
\@writefile{toc}{\contentsline {subsection}{\numberline {4.2.4}Decision making constructs}{9}{subsection.4.2.4}}
\newlabel{snippets__Fortran_8F90_Decision}{{4.2.4}{9}{Decision making constructs}{subsection.4.2.4}{}}
\@writefile{toc}{\contentsline {subsubsection}{\numberline {4.2.4.1}Operators}{9}{subsubsection.4.2.4.1}}
\newlabel{snippets__Fortran_8F90_Operators}{{4.2.4.1}{9}{Operators}{subsubsection.4.2.4.1}{}}
\@writefile{toc}{\contentsline {subsection}{\numberline {4.2.5}Loop types}{9}{subsection.4.2.5}}
\newlabel{snippets__Fortran_8F90_Loops}{{4.2.5}{9}{Loop types}{subsection.4.2.5}{}}
\@writefile{toc}{\contentsline {subsubsection}{\numberline {4.2.5.1}Control statements}{10}{subsubsection.4.2.5.1}}
\newlabel{snippets__Fortran_8F90_Control}{{4.2.5.1}{10}{Control statements}{subsubsection.4.2.5.1}{}}
\@writefile{toc}{\contentsline {section}{\numberline {4.3}snippets\discretionary {\unhbox \voidb@x \hbox {\relax \fontsize  {7}{8}\selectfont  $\leftarrow \joinrel  \rhook $}}{}{}\_\discretionary {\unhbox \voidb@x \hbox {\relax \fontsize  {7}{8}\selectfont  $\leftarrow \joinrel  \rhook $}}{}{}\discretionary {\unhbox \voidb@x \hbox {\relax \fontsize  {7}{8}\selectfont  $\leftarrow \joinrel  \rhook $}}{}{}R.\discretionary {\unhbox \voidb@x \hbox {\relax \fontsize  {7}{8}\selectfont  $\leftarrow \joinrel  \rhook $}}{}{}F90 File Reference}{10}{section.4.3}}
\newlabel{snippets__R_8F90}{{4.3}{10}{snippets\+\_\+\+R.\+F90 File Reference}{section.4.3}{}}
\@writefile{toc}{\contentsline {subsection}{\numberline {4.3.1}Detailed Description}{10}{subsection.4.3.1}}
\@writefile{toc}{\contentsline {subsection}{\numberline {4.3.2}vectors, matrices, arrays, lists, data frames}{10}{subsection.4.3.2}}
\newlabel{snippets__R_8F90_data}{{4.3.2}{10}{vectors, matrices, arrays, lists, data frames}{subsection.4.3.2}{}}
\@writefile{toc}{\contentsline {subsubsection}{\numberline {4.3.2.1}subset}{10}{subsubsection.4.3.2.1}}
\newlabel{snippets__R_8F90_subset}{{4.3.2.1}{10}{subset}{subsubsection.4.3.2.1}{}}
\@writefile{toc}{\contentsline {subsubsection}{\numberline {4.3.2.2}sort}{11}{subsubsection.4.3.2.2}}
\newlabel{snippets__R_8F90_sort}{{4.3.2.2}{11}{sort}{subsubsection.4.3.2.2}{}}
\@writefile{toc}{\contentsline {subsubsection}{\numberline {4.3.2.3}array}{11}{subsubsection.4.3.2.3}}
\newlabel{snippets__R_8F90_array}{{4.3.2.3}{11}{array}{subsubsection.4.3.2.3}{}}
\@writefile{toc}{\contentsline {subsection}{\numberline {4.3.3}statistics}{11}{subsection.4.3.3}}
\newlabel{snippets__R_8F90_statistics}{{4.3.3}{11}{statistics}{subsection.4.3.3}{}}
\@writefile{toc}{\contentsline {subsubsection}{\numberline {4.3.3.1}regression}{11}{subsubsection.4.3.3.1}}
\newlabel{snippets__R_8F90_regression}{{4.3.3.1}{11}{regression}{subsubsection.4.3.3.1}{}}
\@writefile{toc}{\contentsline {subsubsection}{\numberline {4.3.3.2}Wilcox}{11}{subsubsection.4.3.3.2}}
\newlabel{snippets__R_8F90_Wilcox}{{4.3.3.2}{11}{Wilcox}{subsubsection.4.3.3.2}{}}
\@writefile{toc}{\contentsline {subsubsection}{\numberline {4.3.3.3}modal value}{11}{subsubsection.4.3.3.3}}
\newlabel{snippets__R_8F90_modal}{{4.3.3.3}{11}{modal value}{subsubsection.4.3.3.3}{}}
\@writefile{toc}{\contentsline {subsection}{\numberline {4.3.4}data processing}{11}{subsection.4.3.4}}
\newlabel{snippets__R_8F90_processing}{{4.3.4}{11}{data processing}{subsection.4.3.4}{}}
\@writefile{toc}{\contentsline {subsubsection}{\numberline {4.3.4.1}loop with strings}{11}{subsubsection.4.3.4.1}}
\newlabel{snippets__R_8F90_loopstring}{{4.3.4.1}{11}{loop with strings}{subsubsection.4.3.4.1}{}}
\@writefile{toc}{\contentsline {subsubsection}{\numberline {4.3.4.2}run code in parallel}{12}{subsubsection.4.3.4.2}}
\newlabel{snippets__R_8F90_parallel}{{4.3.4.2}{12}{run code in parallel}{subsubsection.4.3.4.2}{}}
\@writefile{toc}{\contentsline {subsubsection}{\numberline {4.3.4.3}rbind using list pattern}{12}{subsubsection.4.3.4.3}}
\newlabel{snippets__R_8F90_rbind}{{4.3.4.3}{12}{rbind using list pattern}{subsubsection.4.3.4.3}{}}
\@writefile{toc}{\contentsline {subsubsection}{\numberline {4.3.4.4}tapply}{12}{subsubsection.4.3.4.4}}
\newlabel{snippets__R_8F90_tapply}{{4.3.4.4}{12}{tapply}{subsubsection.4.3.4.4}{}}
\@writefile{toc}{\contentsline {subsection}{\numberline {4.3.5}netcdf}{12}{subsection.4.3.5}}
\newlabel{snippets__R_8F90_netcdf}{{4.3.5}{12}{netcdf}{subsection.4.3.5}{}}
\@writefile{toc}{\contentsline {subsubsection}{\numberline {4.3.5.1}ncopen}{12}{subsubsection.4.3.5.1}}
\newlabel{snippets__R_8F90_ncopen}{{4.3.5.1}{12}{ncopen}{subsubsection.4.3.5.1}{}}
\@writefile{toc}{\contentsline {subsubsection}{\numberline {4.3.5.2}netcdf}{13}{subsubsection.4.3.5.2}}
\newlabel{snippets__R_8F90_netcdf}{{4.3.5.2}{13}{netcdf}{subsubsection.4.3.5.2}{}}
\@writefile{toc}{\contentsline {subsubsection}{\numberline {4.3.5.3}convert netcdf to array}{13}{subsubsection.4.3.5.3}}
\newlabel{snippets__R_8F90_netcdf_array}{{4.3.5.3}{13}{convert netcdf to array}{subsubsection.4.3.5.3}{}}
\@writefile{toc}{\contentsline {subsubsection}{\numberline {4.3.5.4}get projection}{13}{subsubsection.4.3.5.4}}
\newlabel{snippets__R_8F90_projection}{{4.3.5.4}{13}{get projection}{subsubsection.4.3.5.4}{}}
\@writefile{toc}{\contentsline {subsection}{\numberline {4.3.6}raster}{14}{subsection.4.3.6}}
\newlabel{snippets__R_8F90_raster}{{4.3.6}{14}{raster}{subsection.4.3.6}{}}
\@writefile{toc}{\contentsline {subsubsection}{\numberline {4.3.6.1}NA}{14}{subsubsection.4.3.6.1}}
\newlabel{snippets__R_8F90_NA}{{4.3.6.1}{14}{NA}{subsubsection.4.3.6.1}{}}
\@writefile{toc}{\contentsline {subsubsection}{\numberline {4.3.6.2}longitude}{14}{subsubsection.4.3.6.2}}
\newlabel{snippets__R_8F90_longitude}{{4.3.6.2}{14}{longitude}{subsubsection.4.3.6.2}{}}
\@writefile{toc}{\contentsline {subsubsection}{\numberline {4.3.6.3}count points in grid cell}{14}{subsubsection.4.3.6.3}}
\newlabel{snippets__R_8F90_count}{{4.3.6.3}{14}{count points in grid cell}{subsubsection.4.3.6.3}{}}
\@writefile{toc}{\contentsline {subsubsection}{\numberline {4.3.6.4}seasonal mean}{14}{subsubsection.4.3.6.4}}
\newlabel{snippets__R_8F90_seasonal}{{4.3.6.4}{14}{seasonal mean}{subsubsection.4.3.6.4}{}}
\@writefile{toc}{\contentsline {subsubsection}{\numberline {4.3.6.5}zonal mean}{14}{subsubsection.4.3.6.5}}
\newlabel{snippets__R_8F90_zonal}{{4.3.6.5}{14}{zonal mean}{subsubsection.4.3.6.5}{}}
\@writefile{toc}{\contentsline {subsubsection}{\numberline {4.3.6.6}percentiles}{14}{subsubsection.4.3.6.6}}
\newlabel{snippets__R_8F90_percentiles}{{4.3.6.6}{14}{percentiles}{subsubsection.4.3.6.6}{}}
\@writefile{toc}{\contentsline {subsection}{\numberline {4.3.7}polygon}{15}{subsection.4.3.7}}
\newlabel{snippets__R_8F90_polygon}{{4.3.7}{15}{polygon}{subsection.4.3.7}{}}
\@writefile{toc}{\contentsline {subsubsection}{\numberline {4.3.7.1}polar stereographic projection}{15}{subsubsection.4.3.7.1}}
\newlabel{snippets__R_8F90_polar}{{4.3.7.1}{15}{polar stereographic projection}{subsubsection.4.3.7.1}{}}
\@writefile{toc}{\contentsline {subsubsection}{\numberline {4.3.7.2}reproject polygon}{16}{subsubsection.4.3.7.2}}
\newlabel{snippets__R_8F90_reproject}{{4.3.7.2}{16}{reproject polygon}{subsubsection.4.3.7.2}{}}
\@writefile{toc}{\contentsline {subsubsection}{\numberline {4.3.7.3}rotate polygon}{16}{subsubsection.4.3.7.3}}
\newlabel{snippets__R_8F90_rotate}{{4.3.7.3}{16}{rotate polygon}{subsubsection.4.3.7.3}{}}
\@writefile{toc}{\contentsline {subsection}{\numberline {4.3.8}points}{16}{subsection.4.3.8}}
\newlabel{snippets__R_8F90_points}{{4.3.8}{16}{points}{subsection.4.3.8}{}}
\@writefile{toc}{\contentsline {subsubsection}{\numberline {4.3.8.1}points}{16}{subsubsection.4.3.8.1}}
\newlabel{snippets__R_8F90_points}{{4.3.8.1}{16}{points}{subsubsection.4.3.8.1}{}}
\@writefile{toc}{\contentsline {subsection}{\numberline {4.3.9}plots}{17}{subsection.4.3.9}}
\newlabel{snippets__R_8F90_plots}{{4.3.9}{17}{plots}{subsection.4.3.9}{}}
\@writefile{toc}{\contentsline {subsubsection}{\numberline {4.3.9.1}fonts}{17}{subsubsection.4.3.9.1}}
\newlabel{snippets__R_8F90_fonts}{{4.3.9.1}{17}{fonts}{subsubsection.4.3.9.1}{}}
\@writefile{toc}{\contentsline {subsubsection}{\numberline {4.3.9.2}subplots}{17}{subsubsection.4.3.9.2}}
\newlabel{snippets__R_8F90_subplots}{{4.3.9.2}{17}{subplots}{subsubsection.4.3.9.2}{}}
\@writefile{toc}{\contentsline {subsubsection}{\numberline {4.3.9.3}hatching}{17}{subsubsection.4.3.9.3}}
\newlabel{snippets__R_8F90_hatching}{{4.3.9.3}{17}{hatching}{subsubsection.4.3.9.3}{}}
\@writefile{toc}{\contentsline {subsubsection}{\numberline {4.3.9.4}superscripts and subscripts}{18}{subsubsection.4.3.9.4}}
\newlabel{snippets__R_8F90_subscripts}{{4.3.9.4}{18}{superscripts and subscripts}{subsubsection.4.3.9.4}{}}
\@writefile{toc}{\contentsline {subsubsection}{\numberline {4.3.9.5}transparent colors}{18}{subsubsection.4.3.9.5}}
\newlabel{snippets__R_8F90_colors}{{4.3.9.5}{18}{transparent colors}{subsubsection.4.3.9.5}{}}
\bibstyle{plain}
\bibdata{bibTmpFile_1}
